
{
  "views": [
    {
      "propertyId": "64595761",
      "price": "£1,650,000",
      "address": "Kennington Lane, London",
      "distance": "Within 1.5 miles",
      "priceQualifier": "Guide Price",
      "propertyUrl": "/property/64595761",
      "imagesURLs": {
        "imageURLs": [
          "http://media.rightmove.co.uk/dir/136k/135410/64595761/135410_BPS170278_IMG_01_0000_max_296x197.jpg",
          "http://media.rightmove.co.uk/dir/136k/135410/64595761/135410_BPS170278_IMG_03_0000_max_296x197.jpg",
          "http://media.rightmove.co.uk/dir/136k/135410/64595761/135410_BPS170278_IMG_02_0000_max_296x197.jpg"
        ]
      },
      "showCarousel": true
    },
    {
      "propertyId": "51879093",
      "price": "£850,000",
      "address": "Marcia Road, London, SE1",
      "distance": "Within 2 miles",
      "priceQualifier": "Offers in Excess of",
      "propertyUrl": "/property/51879093",
      "imagesURLs": {
        "imageURLs": [
          "http://media.rightmove.co.uk/dir/89k/88484/51879093/88484_dw2-mjav_IMG_01_0000_max_296x197.jpg",
          "http://media.rightmove.co.uk/dir/89k/88484/51879093/88484_dw2-mjav_IMG_02_0000_max_296x197.jpg",
          "http://media.rightmove.co.uk/dir/89k/88484/51879093/88484_dw2-mjav_IMG_03_0000_max_296x197.jpg"
        ]
      },
      "showCarousel": true
    },
    {
      "propertyId": "72386924",
      "price": "£2,200,000",
      "address": "City Road, London",
      "distance": "Within 2 miles",
      "priceQualifier": "",
      "propertyUrl": "/property/72386924",
      "imagesURLs": {
        "imageURLs": [
          "http://media.rightmove.co.uk/dir/35k/34194/72386924/34194_ISL170407_IMG_01_0000_max_296x197.jpg",
          "http://media.rightmove.co.uk/dir/35k/34194/72386924/34194_ISL170407_IMG_12_0000_max_296x197.jpg",
          "http://media.rightmove.co.uk/dir/35k/34194/72386924/34194_ISL170407_IMG_16_0000_max_296x197.jpg"
        ]
      },
      "showCarousel": true
    },
    {
      "propertyId": "72574118",
      "price": "£6,950,000",
      "address": "Mount Row, London, W1K",
      "distance": "Within 2 miles",
      "priceQualifier": "",
      "propertyUrl": "/property/72574118",
      "imagesURLs": {
        "imageURLs": [
          "http://media.rightmove.co.uk/dir/66k/65815/72574118/65815_POD180316_IMG_01_0000_max_296x197.jpg",
          "http://media.rightmove.co.uk/dir/66k/65815/72574118/65815_POD180316_IMG_02_0000_max_296x197.jpg",
          "http://media.rightmove.co.uk/dir/66k/65815/72574118/65815_POD180316_IMG_03_0001_max_296x197.jpg"
        ]
      },
      "showCarousel": true
    },
    {
      "propertyId": "61017046",
      "price": "£2,750,000",
      "address": "Chapel Street, Belgravia, London, SW1X",
      "distance": "Within 2.5 miles",
      "priceQualifier": "",
      "propertyUrl": "/property/61017046",
      "imagesURLs": {
        "imageURLs": [
          "http://media.rightmove.co.uk/dir/95k/94745/61017046/94745_BGV160033_IMG_01_0009_max_296x197.jpg",
          "http://media.rightmove.co.uk/dir/95k/94745/61017046/94745_BGV160033_IMG_06_0008_max_296x197.jpg",
          "http://media.rightmove.co.uk/dir/95k/94745/61017046/94745_BGV160033_IMG_02_0010_max_296x197.jpg"
        ]
      },
      "showCarousel": true
    }
  ],
  "resultSummaryMessage": "These are the nearest properties with the same number of bedrooms which are sold subject to contract.",
  "showLink": true,
  "soldPriceLoadRangeDisclaimer": null
}