{
		"key": "WATERLOO S",
			"term": "WATERLOO S",
				"typeAheadLocations": [
							{
											"displayName": "Waterloo, South East London",
														"locationIdentifier": "REGION^85216",
																	"normalisedSearchTerm": "WATERLOO SOUTH EAST LONDON"
																			},
																					{
																									"displayName": "Waterloo Station",
																												"locationIdentifier": "STATION^9662",
																															"normalisedSearchTerm": "WATERLOO STATION"
																																	}
																																		],
																																			"isComplete": true
}
